{"data":{"searchArts":{"items":[{"id":"64ab6569-e58b-4e71-8f15-43cc3fb7635d","titles":["Spirit of Life"],"artists":["Helaine Blumenfeld"],"address":{"address":"12000 Warwick Boulevard","city":"Newport News","state":"Virginia","zip":"23601"},"yearCreated":"2005","materials":["marble (rock)"],"workTypes":["sculpture (visual work)"],"themes":[],"placement":["hospitals"],"collections":["Newport News Public Art Foundation"],"__typename":"ESSearchArtObject"},{"id":"bce68398-e422-4905-9682-fad3aa186f4c","titles":["Reinvented"],"artists":["Rob Lorenson"],"address":{"address":"Intersection of Canon and Thimble Shoals Boulevards","city":"Newport News","state":"Virginia","zip":"23606"},"yearCreated":"2005","materials":["stainless steel"],"workTypes":["outdoor sculpture"],"themes":[],"placement":["intersections"],"collections":["Newport News Public Art Foundation"],"__typename":"ESSearchArtObject"},{"id":"b07d558a-461b-4355-acd3-f5233d12adfc","titles":["Counter Nature"],"artists":["Maria Park"],"address":{"address":"1800 Orleans St","city":"Baltimore","state":"Maryland","zip":"21287"},"yearCreated":"2012","materials":["acrylic","Plexiglas (TM)"],"workTypes":["paintings (visual works)"],"themes":[],"placement":["health facilities"],"collections":["Johns Hopkins Hospital Art Program"],"__typename":"ESSearchArtObject"},{"id":"334ddf33-2aec-4977-b748-fd1bd8053abb","titles":["Memory of Green"],"artists":["Masaru Bando"],"address":{"address":"735 Thimble Shoals Blvd.","city":"Newport News","state":"Virginia","zip":"23606"},"yearCreated":"2000","materials":["bronze (metal)"],"workTypes":["bronzes (sculptures)"],"themes":[],"placement":["commercial buildings"],"collections":["Newport News Public Art Foundation"],"__typename":"ESSearchArtObject"},{"id":"91a860d6-3efe-42b2-bf67-bb099a9d3d63","titles":["Selene"],"artists":["Maria Gamundi"],"address":{"address":"Intersection of Museum Drive and Museum Parkway","city":"Newport News","state":"Virginia","zip":null},"yearCreated":"2013","materials":["marble (rock)"],"workTypes":["sculpture (visual work)"],"themes":[],"placement":["parks (grounds)"],"collections":["Newport News Public Art Foundation"],"__typename":"ESSearchArtObject"},{"id":"dee61f3f-a0d4-4e5d-bf60-143a2efb49bf","titles":["Patterns"],"artists":["Martha Jackson Jarvis"],"address":{"address":"1770 Ashland Avenue","city":"Baltimore","state":"Maryland","zip":"21205"},"yearCreated":"2013","materials":["tile","glass (material)"],"workTypes":["mosaics (visual works)"],"themes":[],"placement":["health facilities"],"collections":["MEDCO, Maryland Economic Development Corporation"],"__typename":"ESSearchArtObject"},{"id":"f09aacad-cf28-4cf5-8b02-bc1e6e43d6c1","titles":["Whitetail Crossing"],"artists":["Wendy Klemperer"],"address":{"address":"Entrance to Deer Park at 11523 Jefferson Avenue","city":"Newport News","state":"Virginia","zip":"23601"},"yearCreated":"2015","materials":["recycled materials"],"workTypes":["outdoor sculpture"],"themes":[],"placement":["parks (grounds)"],"collections":["Newport News Public Art Foundation"],"__typename":"ESSearchArtObject"},{"id":"5984f49f-249f-47f6-9f97-a9dd8f488aaf","titles":["Babble, Pummel & Pride"],"artists":["Matthew Geller"],"address":{"address":"4545 N. Charles Street","city":"Baltimore","state":"Maryland","zip":"21210"},"yearCreated":"2006","materials":["glass (material)","steel (alloy)","wood (plant material)","water"],"workTypes":["fountain (water feature)"],"themes":[],"placement":["universities and colleges"],"collections":["Artist-sponsored"],"__typename":"ESSearchArtObject"},{"id":"5b42227f-6873-4af3-b8aa-06b19fb12c85","titles":["Carambola"],"artists":["Emanuele De Reggi"],"address":{"address":"100 Main Street","city":"Newport News","state":"Virginia","zip":"23601"},"yearCreated":"2008","materials":["bronze (metal)"],"workTypes":["bronzes (sculptures)"],"themes":[],"placement":["public spaces"],"collections":["Newport News Public Art Foundation"],"__typename":"ESSearchArtObject"},{"id":"8cd5e36d-3695-4c7e-919c-48111fc10fe9","titles":["Monument to Service"],"artists":["Greg Henry"],"address":{"address":"9710 Jefferson Avenue","city":"Newport News","state":"Virginia","zip":"23605"},"yearCreated":"2009","materials":["granite (rock)"],"workTypes":["outdoor sculpture"],"themes":[],"placement":["public buildings","police stations"],"collections":["Newport News Public Art Foundation"],"__typename":"ESSearchArtObject"},{"id":"8c832665-45a0-4565-ba7e-a2a427dff217","titles":["Due"],"artists":["Masaru Bando"],"address":{"address":"Huntington Rose Garden","city":"Newport News","state":"Virginia","zip":"23607"},"yearCreated":"2016","materials":["bronze (metal)"],"workTypes":["bronzes (sculptures)"],"themes":[],"placement":["gardens (open spaces)"],"collections":["Newport News Public Art Foundation"],"__typename":"ESSearchArtObject"},{"id":"988afc3c-b250-4d1f-b894-fe848925b956","titles":["Build a Dream"],"artists":["Richard Hunt"],"address":{"address":"Intersection of Jefferson Avenue and 31st Street","city":"Newport News","state":"Virginia","zip":"23607"},"yearCreated":"2011","materials":["stainless steel"],"workTypes":["sculpture (visual work)"],"themes":["abstract (general art genre)","hope"],"placement":["intersections"],"collections":["Richard Hunt Public Art Collection","Newport News Public Art Foundation"],"__typename":"ESSearchArtObject"},{"id":"698bb648-9467-4e8b-b5cf-e682de5a207d","titles":["Chryshellis"],"artists":["Eileen Gay"],"address":{"address":"West Ocean View Ave","city":"Norfolk","state":"Virginia","zip":null},"yearCreated":"2021","materials":["concrete","ceramic glaze","porcelain","mosaic glass","tile"],"workTypes":["sculpture (visual work)","mosaics (visual works)"],"themes":[],"placement":["parks (recreation areas)"],"collections":["Norfolk Arts"],"__typename":"ESSearchArtObject"},{"id":"a8ddcb76-a8de-4b69-a6e5-18ceb0dc2d9e","titles":["Guiding Sails"],"artists":["Koryn Rolstad Studios"],"address":{"address":"1251 W 42nd St.","city":"Norfolk","state":"Virginia","zip":"23508"},"yearCreated":"2011","materials":["concrete","aluminum (metal)","LEDs"],"workTypes":["outdoor sculpture"],"themes":[],"placement":["community centers"],"collections":["Norfolk Arts"],"__typename":"ESSearchArtObject"},{"id":"36032335-f014-4b79-a61d-a424085336ac","titles":["Seasons of Change"],"artists":["Klaire Smith"],"address":{"address":"902 Gallia Street","city":"Portsmouth","state":"Ohio","zip":"45226"},"yearCreated":"2021","materials":["wood (plant material)","ink"],"workTypes":["reliefs (sculptures)","murals (any medium)","prints (visual works)"],"themes":[],"placement":["exterior walls"],"collections":["Ohio Arts Council"],"__typename":"ESSearchArtObject"},{"id":"254555a8-d2c0-498e-aef0-bc67363818cf","titles":["Upper Blush"],"artists":["Matthew Geller"],"address":{"address":null,"city":"Norfolk, VA","state":"Virginia","zip":"23510"},"yearCreated":"2017","materials":["paint","stainless steel","wood (plant material)","laminated plastic"],"workTypes":["outdoor sculpture"],"themes":[],"placement":["public spaces"],"collections":["Norfolk Arts"],"__typename":"ESSearchArtObject"},{"id":"2df1fb97-1a35-4d1f-ac39-3a1726d87a28","titles":["Upper Blush"],"artists":["Matthew Geller"],"address":{"address":"146 W Olney Rd","city":"Norfolk","state":"Virginia","zip":"23510"},"yearCreated":"2018","materials":["paint","stainless steel","wood (plant material)","concrete","lexan"],"workTypes":["sculpture (visual work)"],"themes":[],"placement":["public spaces"],"collections":["Norfolk Arts"],"__typename":"ESSearchArtObject"},{"id":"bf90107b-6316-4385-8a41-039da2516cdd","titles":["The Norfolk Mermaid","Town Point Park Mermaid - Karen"],"artists":["Mark Leichliter"],"address":{"address":"1 Waterside Dr","city":"Norfolk","state":"Virginia","zip":"23510"},"yearCreated":"2009","materials":["stainless steel"],"workTypes":["outdoor sculpture"],"themes":[],"placement":["water features"],"collections":["Norfolk Arts"],"__typename":"ESSearchArtObject"},{"id":"793ded54-5ca8-4cf1-b2f5-c62ccc8638ae","titles":["Waterwork","Norfolk Murals"],"artists":["Stephen Farley"],"address":{"address":"333 Waterside Drive","city":"Norfolk","state":"Virginia","zip":"23510"},"yearCreated":"2009","materials":["glaze","ceramic tile"],"workTypes":["murals (any medium)","photographs"],"themes":[],"placement":["parks (recreation areas)"],"collections":["Norfolk Arts"],"__typename":"ESSearchArtObject"},{"id":"4edf404d-c3b4-4d94-b86f-50f1f7021404","titles":["MetalMatisse"],"artists":["Electroland LLC"],"address":{"address":"198 Bank Street","city":"Norfolk","state":"Virginia","zip":"23510"},"yearCreated":"2013","materials":["stainless steel","LEDs","sound device components"],"workTypes":["sculpture (visual work)","light art"],"themes":[],"placement":["parks (grounds)"],"collections":["Norfolk Arts"],"__typename":"ESSearchArtObject"},{"id":"6dcb0358-d127-4a6f-95c7-5cb97878e838","titles":["The Canoes"],"artists":["Donald Lipski"],"address":{"address":"Lesner Bridge","city":"Virginia Beach","state":"Virginia","zip":"23451"},"yearCreated":"2018","materials":["stainless steel","LEDs","canoes"],"workTypes":["outdoor sculpture"],"themes":[],"placement":["bridges (built works)"],"collections":["Virginia Beach Public Art"],"__typename":"ESSearchArtObject"}],"meta":{"totalItems":621,"totalPages":5,"currentPage":5,"__typename":"SearchMeta"},"__typename":"SearchArtsResult"}}}
